…
    ## Rows: 135 Columns: 3
    ## ── Column specification ────────────────────────────────────────────────────────
    ## Delimiter: ","
    ## chr (3): What is your UNI?, What is your degree program?, Which most accurat...
    ## 
    ## ℹ Use `spec()` to retrieve the full column specification for this data.
    ## ℹ Specify the column types or set `show_col_types = FALSE` to quiet this message.

``` r
left_join(surv_os, surv_pr_git)
```

    ## Joining, by = "id"

    ## # A tibble: 175 × 4
    ##    id          os         prog  git_exp                                         
    ##    <chr>       <chr>      <chr> <chr>                                           
    ##  1 student_87  <NA>       MS    Pretty smooth: needed some work to connect Git,…
    ##  2 student_106 Windows 10 Other Pretty smooth: needed some work to connect Git,…
    ##  3 student_66  Mac OS X   MPH   Smooth: installation and connection with GitHub…
    ##  4 student_93  Windows 10 MS    Smooth: installation and connection with GitHub…
    ##  5 student_99  Mac OS X   MS    Smooth: installation and connection with GitHub…
    ##  6 student_115 Mac OS X   MS    Smooth: installation and connection with GitHub…
    ##  7 student_15  Windows 10 MPH   Pretty smooth: needed some work to connect Git,…
    ##  8 student_15  Windows 10 MPH   Pretty smooth: needed some work to connect Git,…
    ##  9 student_21  Windows 10 MPH   Pretty smooth: needed some work to connect Git,…
    ## 10 student_86  Mac OS X   <NA>  <NA>                                            
    ## # … with 165 more rows

``` r
inner_join(surv_os, surv_pr_git)
```

    ## Joining, by = "id"

    ## # A tibble: 129 × 4
    ##    id          os         prog  git_exp                                         
    ##    <chr>       <chr>      <chr> <chr>                                           
    ##  1 student_87  <NA>       MS    Pretty smooth: needed some work to connect Git,…
    ##  2 student_106 Windows 10 Other Pretty smooth: needed some work to connect Git,…
    ##  3 student_66  Mac OS X   MPH   Smooth: installation and connection with GitHub…
    ##  4 student_93  Windows 10 MS    Smooth: installation and connection with GitHub…
    ##  5 student_99  Mac OS X   MS    Smooth: installation and connection with GitHub…
    ##  6 student_115 Mac OS X   MS    Smooth: installation and connection with GitHub…
    ##  7 student_15  Windows 10 MPH   Pretty smooth: needed some work to connect Git,…
    ##  8 student_15  Windows 10 MPH   Pretty smooth: needed some work to connect Git,…
    ##  9 student_21  Windows 10 MPH   Pretty smooth: needed some work to connect Git,…
    ## 10 student_59  Windows 10 MPH   Smooth: installation and connection with GitHub…
    ## # … with 119 more rows

``` r
anti_join(surv_os, surv_pr_git)
```

    ## Joining, by = "id"

    ## # A tibble: 46 × 2
    ##    id          os                                     
    ##    <chr>       <chr>                                  
    ##  1 student_86  Mac OS X                               
    ##  2 student_91  Windows 10                             
    ##  3 student_24  Mac OS X                               
    ##  4 student_103 Mac OS X                               
    ##  5 student_163 Mac OS X                               
    ##  6 student_68  Other (Linux, Windows, 95, TI-89+, etc)
    ##  7 student_158 Mac OS X                               
    ##  8 student_19  Windows 10                             
    ##  9 student_43  Mac OS X                               
    ## 10 student_78  Mac OS X                               
    ## # … with 36 more rows
…
